-------------------------------------------------------------------------------
Test set: com.syqu.shop.controller.LoginControllerMvcTests
-------------------------------------------------------------------------------
Tests run: 1, Failures: 0, Errors: 0, Skipped: 0, Time elapsed: 0.013 s - in com.syqu.shop.controller.LoginControllerMvcTests
