com/syqu/shop/controller/HomeController.class
com/syqu/shop/product/ProductService.class
com/syqu/shop/controller/UserController.class
com/syqu/shop/product/ProductServiceImpl.class
com/syqu/shop/controller/ProductController.class
com/syqu/shop/cart/ShoppingCartService.class
com/syqu/shop/Application.class
com/syqu/shop/user/UserDetailsServiceImpl.class
com/syqu/shop/user/UserValidator.class
com/syqu/shop/config/WebSecurityConfig.class
com/syqu/shop/user/UserServiceImpl.class
com/syqu/shop/controller/RegisterController.class
com/syqu/shop/controller/LoginController.class
com/syqu/shop/user/UserService.class
com/syqu/shop/product/ProductRepository.class
com/syqu/shop/StartupData.class
com/syqu/shop/user/User.class
com/syqu/shop/product/Product.class
com/syqu/shop/user/UserRepository.class
com/syqu/shop/cart/ShoppingCartServiceImpl.class
com/syqu/shop/config/WebMvcConfig.class
com/syqu/shop/controller/CartController.class
com/syqu/shop/product/ProductValidator.class
